ApplicationURL;clave;correo;cantidad;pagar
http://localhost/freshshop/index.php;123456;cquintero98@gmail.com;5;45
http://localhost/freshshop/index.php;1234;danna@gmail.com;7;23
http://localhost/freshshop/index.php;12345;sebasmarti85@gmail.com;8;96
http://localhost/freshshop/index.php;1234567;antonia@gmail.com;6;32
http://localhost/freshshop/index.php;321654;roncancio@gmail.com;8;154
http://localhost/freshshop/index.php;paula ;paula@gmail.com;12;355
http://localhost/freshshop/index.php;0257896;teresa@gmail.com;36;178
http://localhost/freshshop/index.php;69874512;peralta@gmail.com;55;245
http://localhost/freshshop/index.php;1239875;roberto@gmail.com;47;588
http://localhost/freshshop/index.php;andrea;andreaperez@gmail.com;23;668
